Stückliste exportiert aus C:/Users/Matze/Amiga/Hardwarehacks/68030-TK2/Layout/68030TK2-V02a.sch am 02.03.2022 23:47:01

Qty Value                 Device                Package         Parts                                                                                                                                                                                                                                                                                                       Description                                                                                    MF       MPN          OC_FARNELL OC_NEWARK SUPPLY
1                         MC68000PROUND-PADS    DIL64-ROUND     IC1                                                                                                                                                                                                                                                                                                         68xxx PROCESSOR                                                                                                                                 
1                         MC68030RC             MPGA128         IC16                                                                                                                                                                                                                                                                                                        68xxx PROCESSOR                                                                                MOTOROLA MC68030RC50C unknown    52F3269         
1                         MC68881FN-SOC         PLCC68-S        IC17                                                                                                                                                                                                                                                                                                        68xxx PROCESSOR                                                                                                      unknown    unknown         
1                         ML10                  ML10            JTAG                                                                                                                                                                                                                                                                                                        HARTING                                                                                                              unknown    unknown         
1                         ML40                  ML40            IDE                                                                                                                                                                                                                                                                                                         HARTING                                                                                                              unknown    unknown         
2                         PINHD-1X03_2.00       1X03M           JP1, JP3                                                                                                                                                                                                                                                                                                    PIN HEADER                                                                                                                                      
3                         PINHD-1X2             1X02            BOOT, CPU/2, OPTION                                                                                                                                                                                                                                                                                         PIN HEADER                                                                                                                                      
1                         PINHD-2X3_2.00        2X03M           JP2                                                                                                                                                                                                                                                                                                         PIN HEADER                                                                                                                                      
62  100nF                 C-EUC0603K            C0603K          C1, C2, C3, C4, C5, C6, C7, C8, C9, C10, C11, C12, C13, C14, C17, C18, C19, C20, C21, C22, C23, C24, C25, C26, C27, C28, C29, C30, C31, C32, C33, C34, C35, C36, C37, C38, C40, C41, C42, C43, C44, C45, C46, C47, C48, C49, C50, C51, C52, C53, C54, C55, C58, C59, C60, C61, C62, C63, C64, C65, C67, C68 CAPACITOR, European symbol                                                                                                                      
1   10MHz / 5V            CSX-750FCFC(5V)       7X5             X1                                                                                                                                                                                                                                                                                                          CITIZEN Crystal Clock Oscilator from http://cfm.citizen.co.jp/english/product/pdf/CSX-750F.pdf                                                  
1   1A Fast               R-EU_R2512            R2512           F1                                                                                                                                                                                                                                                                                                          RESISTOR, European symbol                                                                                                                       
1   22-05-7028-02         22-05-7028-02         7395-02         IDE_ACT                                                                                                                                                                                                                                                                                                     CONNECTOR                                                                                                            9731601    unknown         
5   22uF/10V              C-EUC1206K            C1206K          C15, C16, C39, C56, C57                                                                                                                                                                                                                                                                                     CAPACITOR, European symbol                                                                                                                      
4   33                    R-EU_R0603            R0603           R9, R10, R11, R15                                                                                                                                                                                                                                                                                           RESISTOR, European symbol                                                                                                                       
6   33R                   R-NETZ@3              R-NETZ@2        RN1, RN2, RN3, RN4, RN5, RN6                                                                                                                                                                                                                                                                                                                                                                                                                                
16  4.7k                  R-EU_R0603            R0603           R4, R5, R6, R7, R8, R12, R13, R14, R16, R18, R19, R20, R21, R22, R23, R24                                                                                                                                                                                                                                   RESISTOR, European symbol                                                                                                                       
3   470                   R-EU_R0603            R0603           R1, R2, R3                                                                                                                                                                                                                                                                                                  RESISTOR, European symbol                                                                                                                       
1   50Ohm@100MHz          R-EU_R0603            R0603           FB1                                                                                                                                                                                                                                                                                                         RESISTOR, European symbol                                                                                                                       
2   74ABT16245_HANDSOLDER 74ACT16245_HANDSOLDER TSSOP48_LONGPAD IC3, IC4                                                                                                                                                                                                                                                                                                                                                                                                                                                    
6   74ABT245DW_HANDSOLDER 74245DW_HANDSOLDER    TSSOP20_LONGPAD IC2, IC10, IC11, IC15, IC18, IC19                                                                                                                                                                                                                                                                           Octal BUS TRANSCEIVER, 3-state                                                                                                                  
2   74LVTH16543           ABT16543@2            TSSOP56@2       IC6, IC7                                                                                                                                                                                                                                                                                                                                                                                                                                                    
1   82                    R-EU_R0603            R0603           R17                                                                                                                                                                                                                                                                                                         RESISTOR, European symbol                                                                                                                       
2   AS4C16M16SA-6TCN      K4S56163@2            TSOP2-54@2      IC8, IC9                                                                                                                                                                                                                                                                                                                                                                                                                                                    
1   ICS570A               ICS570B               SO-8            IC14                                                                                                                                                                                                                                                                                                        Multiplier with FBIN=CLK/2:                                                                                                               3.3V  
1   LD117ADT33TR          LD117ADT33TR          DPACK           IC5                                                                                                                                                                                                                                                                                                         Low drop fixed and adjustable positive voltage regulators 1 A                                                                                   
1   SST39SF010A-7         AM29F010S             PLCC-SR32       IC12                                                                                                                                                                                                                                                                                                        1-Megabit FLASH MEMORY                                                                                                                          
1   XC95288XL-TQ144-10ns  XC95288XL-TQ144       TQFP144         IC13                                                                                                                                                                                                                                                                                                                                                                                                                                                        
